…
## Create a frequency table for the State/Union Territory variable to see which states had the most frequent reporting.

```
> table(df$`State/UnionTerritory`)
```
  
## Identify the top 10 states with the highest number of daily reports in the dataset. 

```
> df %>% group_by(`State/UnionTerritory`) %>% summarize(max_daily = max(TotalConfirmed)) %>% arrange(desc(max_daily))
# A tibble: 27 × 2
   `State/UnionTerritory` max_daily
   <chr>                      <dbl>
 1 Maharashtra                   63
 2 Kerala                        40
 3 Delhi                         26
 4 Uttar Pradesh                 24
 5 Telengana                     21
 6 Haryana                       17
 7 Rajasthan                     17
 8 Karnataka                     15
 9 Ladakh                        13
10 Punjab                        13
# ℹ 17 more rows
# ℹ Use `print(n = ...)` to see more rows
```
